{

    "BackgroundColor"       : "#111111",


    "BreadcrumbDelimiter" : "#eb383e",
    "BreadcrumbTextLeft" : "#cccccc",
    "BreadcrumbTextRight" : "#ffffff",

    "ButtonHighlightColor" : "#ffffff",
    "ButtonMenuHighlightText" : "#eb383e",




    "ButtonMenuNormalOverlayText" : "#ff00ff",
    "ButtonMenuNormalText" : "#999999",



    "ButtonNormalColor" : "#eb383e",
    "CounterSeparator" : "#444444",
    "CounterTextLeft" : "#bbbbbb",
    "CounterTextRight" : "#999999",




    "DialogBodyText" : "#111111",
    "DialogTitleText" : "#666666",
    "EpisodeSynopsisText" : "#757575",



    "FilterBannerActiveColor" : "#eb383e",
    "FilterBannerInactiveColor" : "#999999",
    "FilterBannerSideColor" : "#666666",


    "FilterBannerActiveHD" : "",
    "FilterBannerActiveSD" : "",


 


    "FilterBannerInactiveHD" : "",
    "FilterBannerInactiveSD" : "",


    


    "FilterBannerSliceHD" : "pkg:/images/filter-banner-slice-hd.png",
    "FilterBannerSliceSD" : "pkg:/images/filter-banner-slice-sd.png",

   


    "GridScreenBackgroundColor" : "#000000",
    "GridScreenBorderOffsetHD" : "pkg:/images/test-tile.jpg",
    "GridScreenBorderOffsetSD" : "pkg:/images/test-tile.jpg",


    


    "GridScreenDescriptionImageHD" : "pkg:/images/background-500x200-hd.png",
    "GridScreenDescriptionImageSD" : "pkg:/images/background-500x200-sd.png",



    "GridScreenDescriptionTitleColor" : "#eb383e",
    "GridScreenDescriptionSynopsisColor" : "#bbbbbb",
    "GridScreenDescriptionRuntimeColor" : "#999999",
    "GridScreenDescriptionDateColor" : "#999999",


    "GridScreenDescriptionOffsetHD" : "pkg:/images/test-tile.jpg",
    "GridScreenDescriptionOffsetSD" : "pkg:/images/test-tile.jpg",


    
    






    "GridScreenListNameColor" : "#ffffff",
    "GridScreenFocusBorderHD" : "pkg:/images/grid-screen-focus-border-hd.png",
    "GridScreenFocusBorderSD" : "pkg:/images/grid-screen-focus-border-sd.png",


    "GridScreenMessageColor" : "#ffffff",


    "GridScreenLogoHD" : "pkg:/images/overhang-primary-logo-hd.png",
    "GridScreenLogoOffsetHD_X" : "50",
    "GridScreenLogoOffsetHD_Y" : "30",
    "GridScreenLogoOffsetSD_X" : "50",
    "GridScreenLogoOffsetSD_Y" : "30",
    "GridScreenLogoSD" : "pkg:/images/overhang-primary-logo-sd.png",





    "GridScreenOverhangHeightHD" : "120",
    "GridScreenOverhangHeightSD" : "90",


    "GridScreenOverhangSliceHD" : "pkg:/images/test-tile.jpg",
    "GridScreenOverhangSliceSD" : "pkg:/images/test-tile.jpg",


    "GridScreenRetrievingColor" : "#cccccc",

    "ListItemHighlightHD" : "pkg:/images/grid-screen-focus-border-hd.png",
    "ListItemHighlightSD" : "pkg:/images/grid-screen-focus-border-sd.png",
    "ListItemHighlightText" : "#eb383e",
    "ListItemText" : "#ffffff",
    "ListScreenDescriptionText" : "#eb383e",
    "ListScreenTitleColor" : "#ffffff",

    "OverhangPrimaryLogoHD" : "pkg:/images/overhang-primary-logo-hd.png",
    "OverhangPrimaryLogoOffsetHD_X" : "50",
    "OverhangPrimaryLogoOffsetHD_Y" : "30",

    "OverhangPrimaryLogoOffsetSD_X" : "50",
    "OverhangPrimaryLogoOffsetSD_Y" : "30",


    "OverhangPrimaryLogoSD" : "pkg:/images/overhang-primary-logo-sd.png",
    "OverhangSecondaryLogoHD" : "",


    "OverhangSecondaryLogoOffsetHD_X" : "",
    "OverhangSecondaryLogoOffsetHD_Y" : "",
    "OverhangSecondaryLogoOffsetSD_X" : "",
    "OverhangSecondaryLogoOffsetSD_Y" : "",


    "OverhangSecondaryLogoSD" : "",


    "OverhangSliceHD" : "pkg:/images/overhang-slice-hd.png",
    "OverhangSliceSD" : "pkg:/images/overhang-slice-sd.png",

    "ParagraphBodyText" : "#757575",
    "ParagraphHeaderText" : "#666666",

    "PosterScreenLine1Text" : "#eb383e",
    "PosterScreenLine2Text" : "#cccccc",

    "RegistrationCodeColor" : "#eb383e",
    "RegistrationFocalColor" : "#ffffff",
    "RegistrationFocalRectColor" : "#333333",
    "RegistrationFocalRectHD" : "pkg:/images/grid-screen-focus-border-hd.png",
    "RegistrationFocalRectSD" : "pkg:/images/grid-screen-focus-border-sd.png",

    "SpringboardActorColor" : "#ffffff",
    "SpringboardAlbumColor" : "#ffffff",


    "SpringboardAlbumLabel" : "",
    "SpringboardAlbumLabelColor" : "#eb383e",


    "SpringboardAllow6Buttons" : "",

    "SpringboardArtistColor" : "#2db200",

    "SpringboardArtistLabel" : "",


    "SpringboardArtistLabelColor" : "#2db200",
    "SpringboardDirectorColor" : "#2db200",


    "SpringboardDirectorLabel" : "",

    "SpringboardDirectorLabelColor" : "#2db200",
    "SpringboardDirectorPrefixText" : "#2db200",
    
    
    "SpringboardTitleText" : "#eb383e",
    "SpringboardSynopsisColor" : "#ffffff",
    "SpringboardRuntimeColor" : "#cccccc",
    "SpringboardGenreColor" : "#ffffff",
   



    "TextScreenBodyBackgroundColor" : "#2db200",
    "TextScreenBodyText" : "#2db200",
    "TextScreenScrollBarColor" : "#2db200",
    "TextScreenScrollThumbColor" : "#2db200"
}